[{
    "id": 0,
    "title": "Javascript Engineer",
    "location": "Javascript Island, NC",
    "date": "Nov 13, 2019",
    "recruiter": "Javascript Person",
    "minSalary": 30000,
    "maxSalary": 9000000000,
    "description": "Must be an expert at all things JavaScript, including frameworks and object oriented programming (OOP)."
},
{
    "id": 1,
    "title": "React Engineer",
    "location": "Reactville, NC",
    "date": "Nov 13, 2019",
    "recruiter": "React Person",
    "minSalary": 30000,
    "maxSalary": 9000000000,
    "description": "Must be an expert at all things React, including frameworks and object oriented programming (OOP)."
}, {
    "id": 2,
    "title": "Angular Engineer",
    "location": "Angular Town, NC",
    "date": "Nov 13, 2019",
    "recruiter": "Angular Person",
    "minSalary": 30000,
    "maxSalary": 9000000000,
    "description": "Must be an expert at all things Angular, including frameworks and object oriented programming (OOP)."
}, {
    "id": 3,
    "title": "Vue Engineer",
    "location": "Vue Land, NC",
    "date": "Nov 13, 2019",
    "recruiter": "Vue Person",
    "minSalary": 30000,
    "maxSalary": 9000000000,
    "description": "Must be an expert at all things Vue, including frameworks and object oriented programming (OOP)."
}]


