[
        {
            imageSrc: "https://placeimg.com/140/80/any",
            title: "Html Tags by category",
            desc: "Inline elements vs Block Elements",
            createdOn: "Sep 8th 2019"
        },
        {
            imageSrc: "https://placeimg.com/140/80/any",
            title: "Get Started",
            desc: "Button in html / css",
            createdOn: "Sep 10th 2019"
        },
        {
            imageSrc: "https://placeimg.com/140/80/any",
            title: "Html Inline elements",
            desc: "Html Inline elements",
            createdOn: "Sep 14th 2019"
        }
    ]